ex8/waves.vcd
$date
    Nov 18, 2021  12:19:52
$end
$version
    TOOL:	ncsim(64)	15.20-s085
$end
$timescale
    1 ns
$end

$scope module main $end
$var reg       1 !    clk  $end
$var reg       1 "    reset  $end
$var reg       1 #    push  $end
$var reg       1 $    pop  $end
$var reg       2 %    in [1:0] $end
$var wire      2 &    out [1:0] $end
$var wire      1 '    full  $end
$var integer  32 (    test  $end

$scope module fifo $end
$var parameter 32 )    N  $end
$var parameter 32 *    M  $end
$var wire      1 +    clk  $end
$var wire      1 ,    reset  $end
$var wire      1 -    push  $end
$var wire      1 .    pop  $end
$var wire      2 /    in [1:0] $end
$var reg       2 0    out [1:0] $end
$var wire      1 '    full  $end
$var reg       3 1    write_ptr [2:0] $end
$var reg       3 2    read_ptr [2:0] $end
$var reg       3 3    count [2:0] $end
$var reg       2 4    zero [1:0] $end
$var integer  32 5    i  $end
$upscope $end

$upscope $end

$enddefinitions $end
$dumpvars
b10 *
b100 )
0!
1"
0#
0$
b0 %
bx &
0'
bx (
0+
1,
0-
0.
b0 /
bx 0
b0 1
b0 2
b0 3
b0 4
bx 5
$end
#5
1!
1+
b0 5
b1 5
b10 5
b11 5
b100 5
b0 0
b0 &
#10
0"
b11 %
1#
0!
0+
1-
b11 /
0,
#15
1!
1+
b1 1
b1 3
#20
b1 %
0!
0+
b1 /
#25
1!
1+
b11 0
b10 1
b10 3
b11 &
#30
b10 %
0!
0+
b10 /
#35
1!
1+
b11 1
b11 3
#40
b1 (
b1 %
1$
0!
0+
1.
b1 /
#45
1!
1+
b1 2
b100 1
#50
b11 %
0$
0!
0+
0.
b11 /
#55
1!
1+
b1 0
b0 1
b100 3
1'
b1 &
#60
b10 (
b1 %
0#
1$
0!
0+
1.
0-
b1 /
#65
1!
1+
b10 2
b11 3
0'
#70
b10 %
1#
0$
0!
0+
0.
1-
b10 /
#75
1!
1+
b10 0
b1 1
b100 3
1'
b10 &
#80
b1 %
0!
0+
b1 /
#85
1!
1+
#90
b11 (
1$
0!
0+
1.
#95
1!
1+
b11 2
b10 1
#100
0#
0$
0!
0+
0.
0-
#105
1!
1+
b1 0
b1 &
#110
b100 (
0!
0+
